<svg width="28" height="22" viewBox="0 0 28 22" fill="none" xmlns="http://www.w3.org/2000/svg">
<rect width="28" height="22" fill="#C4C4C4"/>
<rect width="1500" height="2985" transform="translate(-1402 -636)" fill="#F8FAFE"/>
<g filter="url(#filter0_d_10682_224)">
<rect x="-371" y="-24" width="420" height="275" rx="20" fill="white" shape-rendering="crispEdges"/>
<path fill-rule="evenodd" clip-rule="evenodd" d="M2.78502 2.57269C5.17872 0.27474 9.04661 0.27474 11.4403 2.57269L14.0001 5.03017L16.56 2.57269C18.9537 0.27474 22.8216 0.27474 25.2154 2.57269C27.609 4.87064 27.609 8.5838 25.2154 10.8818L14.0001 21.6483L2.78502 10.8818C0.391321 8.5838 0.391321 4.87064 2.78502 2.57269ZM9.67253 4.26974C8.25515 2.90905 5.97018 2.90905 4.55278 4.26974C3.1354 5.63044 3.1354 7.82401 4.55278 9.18476L14.0001 18.2542L23.4476 9.18476C24.865 7.82401 24.865 5.63044 23.4476 4.26974C22.0302 2.90905 19.7452 2.90905 18.3279 4.26974L14.0001 8.42432L9.67253 4.26974Z" fill="#888888"/>
<rect x="-370.5" y="-23.5" width="419" height="274" rx="19.5" stroke="#EEEEEE" shape-rendering="crispEdges"/>
</g>
<defs>
<filter id="filter0_d_10682_224" x="-375" y="-24" width="428" height="283" filterUnits="userSpaceOnUse" color-interpolation-filters="sRGB">
<feFlood flood-opacity="0" result="BackgroundImageFix"/>
<feColorMatrix in="SourceAlpha" type="matrix" values="0 0 0 0 0 0 0 0 0 0 0 0 0 0 0 0 0 0 127 0" result="hardAlpha"/>
<feOffset dy="4"/>
<feGaussianBlur stdDeviation="2"/>
<feComposite in2="hardAlpha" operator="out"/>
<feColorMatrix type="matrix" values="0 0 0 0 0 0 0 0 0 0 0 0 0 0 0 0 0 0 0.1 0"/>
<feBlend mode="normal" in2="BackgroundImageFix" result="effect1_dropShadow_10682_224"/>
<feBlend mode="normal" in="SourceGraphic" in2="effect1_dropShadow_10682_224" result="shape"/>
</filter>
</defs>
</svg>
